{
  "count": 21,
  "next": "/api/eda/v1/audit-rules/?page=2",
  "previous": null,
  "page_size": 20,
  "page": 1,
  "results": [
    {
      "id": 21,
      "name": "Say Hello",
      "status": "successful",
      "activation_instance": {
        "id": 1239,
        "name": "webhook"
      },
      "fired_at": "2024-05-05T14:41:05.276359Z"
    },
    {
      "id": 20,
      "name": "Say Hello",
      "status": "successful",
      "activation_instance": {
        "id": 1239,
        "name": "webhook"
      },
      "fired_at": "2024-05-05T14:19:55.054161Z"
    },
    {
      "id": 19,
      "name": "Say Hello",
      "status": "successful",
      "activation_instance": {
        "id": 1239,
        "name": "webhook"
      },
      "fired_at": "2024-05-05T14:17:29.560021Z"
    },
    {
      "id": 18,
      "name": "Say Hello",
      "status": "successful",
      "activation_instance": {
        "id": 214,
        "name": "webhook"
      },
      "fired_at": "2024-05-03T22:49:27.690172Z"
    },
    {
      "id": 17,
      "name": "Say Hello",
      "status": "successful",
      "activation_instance": {
        "id": 214,
        "name": "webhook"
      },
      "fired_at": "2024-05-03T22:39:44.504797Z"
    },
    {
      "id": 16,
      "name": "Say Hello",
      "status": "successful",
      "activation_instance": {
        "id": 214,
        "name": "webhook"
      },
      "fired_at": "2024-05-03T22:39:43.011947Z"
    },
    {
      "id": 15,
      "name": "Say Hello",
      "status": "successful",
      "activation_instance": {
        "id": 214,
        "name": "webhook"
      },
      "fired_at": "2024-05-03T22:38:46.054063Z"
    },
    {
      "id": 14,
      "name": "Say Hello",
      "status": "successful",
      "activation_instance": {
        "id": 71,
        "name": "webhook"
      },
      "fired_at": "2024-05-03T21:18:06.294150Z"
    },
    {
      "id": 13,
      "name": "Say Hello",
      "status": "successful",
      "activation_instance": {
        "id": 71,
        "name": "webhook"
      },
      "fired_at": "2024-05-03T20:16:28.518831Z"
    },
    {
      "id": 12,
      "name": "Say Hello",
      "status": "successful",
      "activation_instance": {
        "id": 71,
        "name": "webhook"
      },
      "fired_at": "2024-05-03T20:10:31.991434Z"
    },
    {
      "id": 11,
      "name": "Say Hello",
      "status": "successful",
      "activation_instance": {
        "id": 71,
        "name": "webhook"
      },
      "fired_at": "2024-05-03T20:10:14.927194Z"
    },
    {
      "id": 10,
      "name": "Say Hello",
      "status": "successful",
      "activation_instance": {
        "id": 71,
        "name": "webhook"
      },
      "fired_at": "2024-05-03T20:05:41.053724Z"
    },
    {
      "id": 9,
      "name": "Say Hello",
      "status": "successful",
      "activation_instance": {
        "id": 71,
        "name": "webhook"
      },
      "fired_at": "2024-05-03T20:01:16.697431Z"
    },
    {
      "id": 8,
      "name": "Patch a Route",
      "status": "successful",
      "activation_instance": {
        "id": 89,
        "name": "Patch Route With Cert"
      },
      "fired_at": "2024-05-03T19:55:26.802385Z"
    },
    {
      "id": 7,
      "name": "Patch a Route",
      "status": "successful",
      "activation_instance": {
        "id": 89,
        "name": "Patch Route With Cert"
      },
      "fired_at": "2024-05-03T19:52:47.996714Z"
    },
    {
      "id": 6,
      "name": "Patch a Route",
      "status": "successful",
      "activation_instance": {
        "id": 89,
        "name": "Patch Route With Cert"
      },
      "fired_at": "2024-05-03T19:52:36.559154Z"
    },
    {
      "id": 5,
      "name": "Patch a Route",
      "status": "successful",
      "activation_instance": {
        "id": 89,
        "name": "Patch Route With Cert"
      },
      "fired_at": "2024-05-03T19:50:46.061039Z"
    },
    {
      "id": 4,
      "name": "Say Hello",
      "status": "successful",
      "activation_instance": {
        "id": 71,
        "name": "webhook"
      },
      "fired_at": "2024-05-03T19:46:39.644240Z"
    },
    {
      "id": 3,
      "name": "Say Hello",
      "status": "successful",
      "activation_instance": {
        "id": 71,
        "name": "webhook"
      },
      "fired_at": "2024-05-03T19:44:38.711670Z"
    },
    {
      "id": 2,
      "name": "Patch a Route",
      "status": "successful",
      "activation_instance": {
        "id": 77,
        "name": "Patch Route With Cert"
      },
      "fired_at": "2024-05-03T18:59:36.127892Z"
    }
  ]
}